-------------------------------------------------------------------------------
Test set: com.capitalone.dashboard.ApplicationConfigTest
-------------------------------------------------------------------------------
Tests run: 1, Failures: 0, Errors: 0, Skipped: 0, Time elapsed: 0.413 sec - in com.capitalone.dashboard.ApplicationConfigTest
