/home/ubuntu/bhagyashri/Hygieia/collectors/scm/gitlab/src/main/java/com/capitalone/dashboard/repository/GitlabGitCollectorRepository.java
/home/ubuntu/bhagyashri/Hygieia/collectors/scm/gitlab/src/main/java/com/capitalone/dashboard/gitlab/model/GitlabCommit.java
/home/ubuntu/bhagyashri/Hygieia/collectors/scm/gitlab/src/main/java/com/capitalone/dashboard/gitlab/GitlabUrlUtility.java
/home/ubuntu/bhagyashri/Hygieia/collectors/scm/gitlab/src/main/java/com/capitalone/dashboard/collector/GitlabSettings.java
/home/ubuntu/bhagyashri/Hygieia/collectors/scm/gitlab/src/main/java/com/capitalone/dashboard/gitlab/GitlabCommitsResponseMapper.java
/home/ubuntu/bhagyashri/Hygieia/collectors/scm/gitlab/src/main/java/com/capitalone/dashboard/gitlab/DefaultGitlabGitClient.java
/home/ubuntu/bhagyashri/Hygieia/collectors/scm/gitlab/src/main/java/com/capitalone/dashboard/model/GitlabGitRepo.java
/home/ubuntu/bhagyashri/Hygieia/collectors/scm/gitlab/src/main/java/com/capitalone/dashboard/collector/GitlabGitCollectorTask.java
/home/ubuntu/bhagyashri/Hygieia/collectors/scm/gitlab/src/main/java/com/capitalone/dashboard/collector/RestOperationsSupplier.java
/home/ubuntu/bhagyashri/Hygieia/collectors/scm/gitlab/src/main/java/com/capitalone/dashboard/gitlab/GitlabGitClient.java
/home/ubuntu/bhagyashri/Hygieia/collectors/scm/gitlab/src/main/java/com/capitalone/dashboard/Application.java
