-------------------------------------------------------------------------------
Test set: com.capitalone.dashboard.widget.GithubScmWidgetScoreTest
-------------------------------------------------------------------------------
Tests run: 3, Failures: 0, Errors: 0, Skipped: 0, Time elapsed: 0.258 sec - in com.capitalone.dashboard.widget.GithubScmWidgetScoreTest
