/home/ubuntu/bhagyashri/Hygieia/collectors/feature/jira/src/main/java/com/capitalone/dashboard/client/project/ProjectDataClient.java
/home/ubuntu/bhagyashri/Hygieia/collectors/feature/jira/src/main/java/com/capitalone/dashboard/collector/FeatureCollectorTask.java
/home/ubuntu/bhagyashri/Hygieia/collectors/feature/jira/src/main/java/com/capitalone/dashboard/util/DateUtil.java
/home/ubuntu/bhagyashri/Hygieia/collectors/feature/jira/src/main/java/com/capitalone/dashboard/repository/package-info.java
/home/ubuntu/bhagyashri/Hygieia/collectors/feature/jira/src/main/java/com/capitalone/dashboard/datafactory/package-info.java
/home/ubuntu/bhagyashri/Hygieia/collectors/feature/jira/src/main/java/com/capitalone/dashboard/client/Sprint.java
/home/ubuntu/bhagyashri/Hygieia/collectors/feature/jira/src/main/java/com/capitalone/dashboard/client/story/StoryDataClient.java
/home/ubuntu/bhagyashri/Hygieia/collectors/feature/jira/src/main/java/com/capitalone/dashboard/util/FeatureSettings.java
/home/ubuntu/bhagyashri/Hygieia/collectors/feature/jira/src/main/java/com/capitalone/dashboard/model/package-info.java
/home/ubuntu/bhagyashri/Hygieia/collectors/feature/jira/src/main/java/com/capitalone/dashboard/util/ClientUtil.java
/home/ubuntu/bhagyashri/Hygieia/collectors/feature/jira/src/main/java/com/capitalone/dashboard/client/package-info.java
/home/ubuntu/bhagyashri/Hygieia/collectors/feature/jira/src/main/java/com/capitalone/dashboard/util/FeatureWidgetQueries.java
/home/ubuntu/bhagyashri/Hygieia/collectors/feature/jira/src/main/java/com/capitalone/dashboard/repository/FeatureCollectorRepository.java
/home/ubuntu/bhagyashri/Hygieia/collectors/feature/jira/src/main/java/com/capitalone/dashboard/client/team/TeamDataClientImpl.java
/home/ubuntu/bhagyashri/Hygieia/collectors/feature/jira/src/main/java/com/capitalone/dashboard/client/DefaultJiraClient.java
/home/ubuntu/bhagyashri/Hygieia/collectors/feature/jira/src/main/java/com/capitalone/dashboard/Application.java
/home/ubuntu/bhagyashri/Hygieia/collectors/feature/jira/src/main/java/com/capitalone/dashboard/client/team/package-info.java
/home/ubuntu/bhagyashri/Hygieia/collectors/feature/jira/src/main/java/com/capitalone/dashboard/datafactory/jira/package-info.java
/home/ubuntu/bhagyashri/Hygieia/collectors/feature/jira/src/main/java/com/capitalone/dashboard/collector/package-info.java
/home/ubuntu/bhagyashri/Hygieia/collectors/feature/jira/src/main/java/com/capitalone/dashboard/model/FeatureCollector.java
/home/ubuntu/bhagyashri/Hygieia/collectors/feature/jira/src/main/java/com/capitalone/dashboard/client/project/ProjectDataClientImpl.java
/home/ubuntu/bhagyashri/Hygieia/collectors/feature/jira/src/main/java/com/capitalone/dashboard/client/JiraRestClientSupplier.java
/home/ubuntu/bhagyashri/Hygieia/collectors/feature/jira/src/main/java/com/capitalone/dashboard/client/project/package-info.java
/home/ubuntu/bhagyashri/Hygieia/collectors/feature/jira/src/main/java/com/capitalone/dashboard/client/story/StoryDataClientImpl.java
/home/ubuntu/bhagyashri/Hygieia/collectors/feature/jira/src/main/java/com/capitalone/dashboard/client/story/package-info.java
/home/ubuntu/bhagyashri/Hygieia/collectors/feature/jira/src/main/java/com/capitalone/dashboard/client/team/TeamDataClient.java
/home/ubuntu/bhagyashri/Hygieia/collectors/feature/jira/src/main/java/com/capitalone/dashboard/datafactory/DataFactory.java
/home/ubuntu/bhagyashri/Hygieia/collectors/feature/jira/src/main/java/com/capitalone/dashboard/client/JiraClient.java
/home/ubuntu/bhagyashri/Hygieia/collectors/feature/jira/src/main/java/com/capitalone/dashboard/util/package-info.java
