-------------------------------------------------------------------------------
Test set: com.capitalone.dashboard.collector.DefaultSonar6ClientTest
-------------------------------------------------------------------------------
Tests run: 3, Failures: 0, Errors: 0, Skipped: 0, Time elapsed: 0.154 sec - in com.capitalone.dashboard.collector.DefaultSonar6ClientTest
