-------------------------------------------------------------------------------
Test set: com.capitalone.dashboard.collector.GitHubCollectorTaskTest
-------------------------------------------------------------------------------
Tests run: 4, Failures: 0, Errors: 0, Skipped: 0, Time elapsed: 0.9 sec - in com.capitalone.dashboard.collector.GitHubCollectorTaskTest
