/home/ubuntu/bhagyashri/Hygieia/collectors/build/sonar/src/test/java/com/capitalone/dashboard/util/SonarDashboardUrlTest.java
/home/ubuntu/bhagyashri/Hygieia/collectors/build/sonar/src/test/java/com/capitalone/dashboard/collector/SonarClientSelectorTest.java
/home/ubuntu/bhagyashri/Hygieia/collectors/build/sonar/src/test/java/com/capitalone/dashboard/collector/SonarCollectorTaskTest.java
/home/ubuntu/bhagyashri/Hygieia/collectors/build/sonar/src/test/java/com/capitalone/dashboard/collector/DefaultSonar6ClientTest.java
